SPF Santé Publique - BELRAI, https://vimeo.com/798420152, 2, 2022
SPF Santé Publique - Patient safety, https://vimeo.com/798419038, 2, 2022
SPF Santé Publique - BELDONOR, https://vimeo.com/798420695, 2, 2022
SPF Santé Publique - Advance Care Planning, https://vimeo.com/798419587, 2, 2022
Hélène Balle - Collecting Know-how, https://vimeo.com/493309009, 2, 2021
Nuit Blanche Aftermovie, https://www.youtube.com/watch?v=uQLuSud2vQc, 2, 2018
Halloween Walibi, https://vimeo.com/252493113, 2, 2017